{
    "name": "apprupt-SDK",
    "version": "4.3.1",
    "summary": "",
    "description": "",
    "homepage": "http://www.apprupt.com",
    "license": {
        "type": "Copyright",
        "text": "Copyright 2011-2016 apprupt GmbH. All rights reserved."
    },
    "authors": "apprupt GmbH",
    "platforms": {
        "ios": "6.0"
    },
    "frameworks": [
        "Foundation",
        "UIKit",
        "QuartzCore",
        "CoreMedia",
        "AudioToolbox",
        "MessageUI",
        "MediaPlayer",
        "CoreLocation",
        "MobileCoreServices",
        "SystemConfiguration",
        "CoreGraphics",
        "CoreTelephony",
        "ExternalAccessory"
    ],
    "weak_frameworks": [
        "StoreKit",
        "Social",
        "EventKit",
        "EventKitUI",
        "AVFoundation",
        "AdSupport",
        "Accounts",
        "CoreMotion",
        "WebKit",
        "iAd",
        "AssetsLibrary"
    ],
    "libraries": [
        "iconv",
        "z.1.2.5",
        "sqlite3",
        "stdc++"
    ],
    "source": {
        "http": "http://static.apprupt.com/apps/sdk/ios/release/sdk/4.3.1/a83289f71a1d635ac4da22345af6d9c1/CvSDK-04030116032901.mk.iOS6.0.zip"
    },
    "source_files": [
        "CvSDK-4.3.1.160329.1-iOS_6.0-mk/**/*.h"
    ],
    "resources": [
        "CvSDK-4.3.1.160329.1-iOS_6.0-mk/**/*.{png,bundle,xib,nib}"
    ],
    "preserve_paths": "CvSDK-4.3.1.160329.1-iOS_6.0-mk",
    "vendored_libraries": "CvSDK-4.3.1.160329.1-iOS_6.0-mk/libCvSDK-4.3.1.160329.1.mk.a",
    "xcconfig": {
        "OTHER_LDFLAGS": "-ObjC"
    },
    "requires_arc": true,
    "dependencies": {}
}