{
    "name": "apprupt-SDK+GoogleAds",
    "version": "1.0.0",
    "summary": "",
    "description": "",
    "homepage": "http://www.apprupt.com",
    "license": {
        "type": "Copyright",
        "text": "Copyright 2011-2015 apprupt GmbH. All rights reserved."
    },
    "authors": "apprupt GmbH",
    "platforms": {
        "ios": "5.1.1"
    },
    "frameworks": [],
    "weak_frameworks": [],
    "libraries": [],
    "source": {
        "http": "http://static.apprupt.com/apps/sdk/ios/release/sdk/mediation/google/1.0.0/1903dbcc2137b5fb7591c1382ea96dfd/CvSDK+GoogleAds-01000015062401.mk.iOS5.1.1.zip"
    },
    "source_files": [
        "CvSDK+GoogleAds-1.0.0.150624.1-iOS_5.1.1-mk/**/*.h"
    ],
    "resources": [
        "CvSDK+GoogleAds-1.0.0.150624.1-iOS_5.1.1-mk/**/*.{png,bundle,xib,nib}"
    ],
    "preserve_paths": "CvSDK+GoogleAds-1.0.0.150624.1-iOS_5.1.1-mk",
    "vendored_libraries": "CvSDK+GoogleAds-1.0.0.150624.1-iOS_5.1.1-mk/libCvSDK+GoogleAds-1.0.0.150624.1.mk.a",
    "xcconfig": {
        "OTHER_LDFLAGS": "-ObjC"
    },
    "requires_arc": true,
    "dependencies": {
        "apprupt-SDK": [
            "~> 4.0"
        ]
    }
}