{
    "name": "apprupt-SDK+MoPub",
    "version": "1.1.0",
    "summary": "",
    "description": "",
    "homepage": "http://www.apprupt.com",
    "license": {
        "type": "Copyright",
        "text": "Copyright 2011-2015 apprupt GmbH. All rights reserved."
    },
    "authors": "apprupt GmbH",
    "platforms": {
        "ios": "6.0"
    },
    "frameworks": [],
    "weak_frameworks": [],
    "libraries": [],
    "source": {
        "http": "http://static.apprupt.com/apps/sdk/ios/release/sdk/mediation/mopub/1.1.0/716825a9747e069c3b47e8e3d946eff4/CvSDK+MoPub-01010015102901.mk.iOS6.0.zip"
    },
    "source_files": [
        "CvSDK+MoPub-1.1.0.151029.1-iOS_6.0-mk/**/*.h"
    ],
    "resources": [
        "CvSDK+MoPub-1.1.0.151029.1-iOS_6.0-mk/**/*.{png,bundle,xib,nib}"
    ],
    "preserve_paths": "CvSDK+MoPub-1.1.0.151029.1-iOS_6.0-mk",
    "vendored_libraries": "CvSDK+MoPub-1.1.0.151029.1-iOS_6.0-mk/libCvSDK+MoPub-1.1.0.151029.1.mk.a",
    "xcconfig": {
        "OTHER_LDFLAGS": "-ObjC"
    },
    "requires_arc": true,
    "dependencies": {
        "apprupt-SDK": [
            "~> 4.0"
        ]
    }
}