{
    "name": "apprupt-SDK",
    "version": "3.7.1-pre1",
    "summary": "",
    "description": "",
    "homepage": "http://www.apprupt.com",
    "license": {
        "type": "Copyright",
        "text": "Copyright 2011-2015 apprupt GmbH. All rights reserved."
    },
    "authors": "apprupt GmbH",
    "platforms": {
        "ios": "5.1.1"
    },
    "frameworks": [
        "Foundation",
        "UIKit",
        "QuartzCore",
        "CoreMedia",
        "AudioToolbox",
        "MessageUI",
        "MediaPlayer",
        "CoreLocation",
        "MobileCoreServices",
        "SystemConfiguration",
        "CoreGraphics",
        "CoreTelephony"
    ],
    "weak_frameworks": [
        "StoreKit",
        "Social",
        "EventKit",
        "EventKitUI",
        "AVFoundation",
        "AdSupport",
        "Accounts"
    ],
    "source": {
        "http": "http://static.apprupt.com/apps/sdk/ios/release/sdk/3.7.1-pre1/80c390f268fe2541d723dcc20af0b16e/CvSDK-03070115050801.mk.iOS5.1.1.zip"
    },
    "libraries" : ["z.1.2.5", "iconv"],
    "source_files": [
        "CvSDK-3.7.1-pre1.150508.1-iOS_5.1.1-mk/**/*.h"
    ],
    "resources": [
        "CvSDK-3.7.1-pre1.150508.1-iOS_5.1.1-mk/**/*.{png,bundle,xib,nib}"
    ],
    "preserve_paths": "CvSDK-3.7.1-pre1.150508.1-iOS_5.1.1-mk",
    "vendored_libraries": "CvSDK-3.7.1-pre1.150508.1-iOS_5.1.1-mk/libCvSDK-3.7.1-pre1.150508.1.mk.a",
    "xcconfig": {
        "OTHER_LDFLAGS": "-ObjC"
    },
    "requires_arc": true,
    "dependencies": {}
}